%YAML 1.1
%TAG !u! tag:unity3d.com,2011:
--- !u!1045 &1
EditorBuildSettings:
  m_ObjectHideFlags: 0
  serializedVersion: 2
  m_Scenes:
  - enabled: 1
    path: Assets/Scenes/menu.unity
    guid: d244be747b6d79842a3bb11a835071f0
  - enabled: 1
    path: Assets/Scenes/game.unity
    guid: 4f2dbb674e820744e8ab8dc1899d11f0
  - enabled: 1
    path: Assets/Scenes/endGame.unity
    guid: 10e4183f33551594dac5f9a25dd647d4
